%YAML 1.1
%TAG !u! tag:unity3d.com,2011:
--- !u!1 &8450187378352518929
GameObject:
  m_ObjectHideFlags: 0
  m_CorrespondingSourceObject: {fileID: 0}
  m_PrefabInstance: {fileID: 0}
  m_PrefabAsset: {fileID: 0}
  serializedVersion: 6
  m_Component:
  - component: {fileID: 5078342547495407614}
  - component: {fileID: 6515274442663857077}
  - component: {fileID: -2518245469366155370}
  m_Layer: 0
  m_Name: sticks
  m_TagString: Untagged
  m_Icon: {fileID: 0}
  m_NavMeshLayer: 0
  m_StaticEditorFlags: 0
  m_IsActive: 1
--- !u!4 &5078342547495407614
Transform:
  m_ObjectHideFlags: 0
  m_CorrespondingSourceObject: {fileID: 0}
  m_PrefabInstance: {fileID: 0}
  m_PrefabAsset: {fileID: 0}
  m_GameObject: {fileID: 8450187378352518929}
  m_LocalRotation: {x: 0, y: 0, z: 0, w: 1}
  m_LocalPosition: {x: -12.344447, y: -2.0215917, z: 0}
  m_LocalScale: {x: 1, y: 1, z: 1}
  m_Children: []
  m_Father: {fileID: 0}
  m_RootOrder: 0
  m_LocalEulerAnglesHint: {x: 0, y: 0, z: 0}
--- !u!212 &6515274442663857077
SpriteRenderer:
  m_ObjectHideFlags: 0
  m_CorrespondingSourceObject: {fileID: 0}
  m_PrefabInstance: {fileID: 0}
  m_PrefabAsset: {fileID: 0}
  m_GameObject: {fileID: 8450187378352518929}
  m_Enabled: 1
  m_CastShadows: 0
  m_ReceiveShadows: 0
  m_DynamicOccludee: 1
  m_MotionVectors: 1
  m_LightProbeUsage: 1
  m_ReflectionProbeUsage: 1
  m_RayTracingMode: 0
  m_RenderingLayerMask: 1
  m_RendererPriority: 0
  m_Materials:
  - {fileID: 10754, guid: 0000000000000000f000000000000000, type: 0}
  m_StaticBatchInfo:
    firstSubMesh: 0
    subMeshCount: 0
  m_StaticBatchRoot: {fileID: 0}
  m_ProbeAnchor: {fileID: 0}
  m_LightProbeVolumeOverride: {fileID: 0}
  m_ScaleInLightmap: 1
  m_ReceiveGI: 1
  m_PreserveUVs: 0
  m_IgnoreNormalsForChartDetection: 0
  m_ImportantGI: 0
  m_StitchLightmapSeams: 1
  m_SelectedEditorRenderState: 0
  m_MinimumChartSize: 4
  m_AutoUVMaxDistance: 0.5
  m_AutoUVMaxAngle: 89
  m_LightmapParameters: {fileID: 0}
  m_SortingLayerID: 0
  m_SortingLayer: 0
  m_SortingOrder: 0
  m_Sprite: {fileID: 21300000, guid: 0080ecd2022caea4e8b64bb8fd335f84, type: 3}
  m_Color: {r: 1, g: 1, b: 1, a: 1}
  m_FlipX: 0
  m_FlipY: 0
  m_DrawMode: 0
  m_Size: {x: 1.52, y: 0.95}
  m_AdaptiveModeThreshold: 0.5
  m_SpriteTileMode: 0
  m_WasSpriteAssigned: 1
  m_MaskInteraction: 0
  m_SpriteSortPoint: 0
--- !u!60 &-2518245469366155370
PolygonCollider2D:
  m_ObjectHideFlags: 0
  m_CorrespondingSourceObject: {fileID: 0}
  m_PrefabInstance: {fileID: 0}
  m_PrefabAsset: {fileID: 0}
  m_GameObject: {fileID: 8450187378352518929}
  m_Enabled: 1
  m_Density: 1
  m_Material: {fileID: 0}
  m_IsTrigger: 0
  m_UsedByEffector: 0
  m_UsedByComposite: 0
  m_Offset: {x: 0, y: 0}
  m_SpriteTilingProperty:
    border: {x: 0, y: 0, z: 0, w: 0}
    pivot: {x: 0.5, y: 0.5}
    oldSize: {x: 1.52, y: 0.95}
    newSize: {x: 1.52, y: 0.95}
    adaptiveTilingThreshold: 0.5
    drawMode: 0
    adaptiveTiling: 0
  m_AutoTiling: 0
  m_Points:
    m_Paths:
    - - {x: 0.75, y: -0.105}
      - {x: 0.75, y: 0.145}
      - {x: 0.65999997, y: 0.265}
      - {x: 0.39999998, y: 0.315}
      - {x: 0.06, y: 0.475}
      - {x: -0.22999999, y: 0.475}
      - {x: -0.25, y: 0.42499998}
      - {x: -0.19999999, y: 0.355}
      - {x: -0.14, y: 0.295}
      - {x: -0.34, y: 0.16499999}
      - {x: -0.5, y: 0.145}
      - {x: -0.74, y: 0.035}
      - {x: -0.76, y: -0.005}
      - {x: -0.76, y: -0.035}
      - {x: -0.7, y: -0.085}
      - {x: -0.5, y: -0.235}
      - {x: -0.45999998, y: -0.225}
      - {x: -0.41, y: -0.175}
      - {x: -0.07, y: -0.114999995}
      - {x: -0.01, y: -0.235}
      - {x: -0.24, y: -0.415}
      - {x: -0.26, y: -0.445}
      - {x: -0.25, y: -0.475}
      - {x: 0.17, y: -0.475}
      - {x: 0.24, y: -0.36499998}
      - {x: 0.61, y: -0.205}
      - {x: 0.66999996, y: -0.205}
    - - {x: 0.11, y: -0.114999995}
      - {x: 0.31, y: -0.105}
      - {x: 0.26, y: -0.155}
      - {x: 0.099999994, y: -0.195}
    - - {x: -0.01, y: 0.145}
      - {x: -0.11, y: 0.16499999}
      - {x: 0.35999998, y: 0.114999995}
      - {x: 0.42, y: 0.105}
      - {x: 0.42999998, y: 0.095}
      - {x: 0.42, y: 0.114999995}
      - {x: 0.39999998, y: 0.114999995}
      - {x: 0.37, y: 0.085}
      - {x: 0.29, y: 0.105}
