%YAML 1.1
%TAG !u! tag:unity3d.com,2011:
--- !u!1 &4078951439432745743
GameObject:
  m_ObjectHideFlags: 0
  m_CorrespondingSourceObject: {fileID: 0}
  m_PrefabInstance: {fileID: 0}
  m_PrefabAsset: {fileID: 0}
  serializedVersion: 6
  m_Component:
  - component: {fileID: 3367967204556778584}
  - component: {fileID: 7528157281275308114}
  - component: {fileID: 1636339107744819293}
  m_Layer: 0
  m_Name: tower2
  m_TagString: Untagged
  m_Icon: {fileID: 0}
  m_NavMeshLayer: 0
  m_StaticEditorFlags: 0
  m_IsActive: 1
--- !u!4 &3367967204556778584
Transform:
  m_ObjectHideFlags: 0
  m_CorrespondingSourceObject: {fileID: 0}
  m_PrefabInstance: {fileID: 0}
  m_PrefabAsset: {fileID: 0}
  m_GameObject: {fileID: 4078951439432745743}
  m_LocalRotation: {x: 0, y: 0, z: 0, w: 1}
  m_LocalPosition: {x: 8.15, y: -0.56, z: 0}
  m_LocalScale: {x: 1, y: 1, z: 1}
  m_Children: []
  m_Father: {fileID: 0}
  m_RootOrder: 0
  m_LocalEulerAnglesHint: {x: 0, y: 0, z: 0}
--- !u!212 &7528157281275308114
SpriteRenderer:
  m_ObjectHideFlags: 0
  m_CorrespondingSourceObject: {fileID: 0}
  m_PrefabInstance: {fileID: 0}
  m_PrefabAsset: {fileID: 0}
  m_GameObject: {fileID: 4078951439432745743}
  m_Enabled: 1
  m_CastShadows: 0
  m_ReceiveShadows: 0
  m_DynamicOccludee: 1
  m_MotionVectors: 1
  m_LightProbeUsage: 1
  m_ReflectionProbeUsage: 1
  m_RayTracingMode: 0
  m_RenderingLayerMask: 1
  m_RendererPriority: 0
  m_Materials:
  - {fileID: 10754, guid: 0000000000000000f000000000000000, type: 0}
  m_StaticBatchInfo:
    firstSubMesh: 0
    subMeshCount: 0
  m_StaticBatchRoot: {fileID: 0}
  m_ProbeAnchor: {fileID: 0}
  m_LightProbeVolumeOverride: {fileID: 0}
  m_ScaleInLightmap: 1
  m_ReceiveGI: 1
  m_PreserveUVs: 0
  m_IgnoreNormalsForChartDetection: 0
  m_ImportantGI: 0
  m_StitchLightmapSeams: 1
  m_SelectedEditorRenderState: 0
  m_MinimumChartSize: 4
  m_AutoUVMaxDistance: 0.5
  m_AutoUVMaxAngle: 89
  m_LightmapParameters: {fileID: 0}
  m_SortingLayerID: 0
  m_SortingLayer: 0
  m_SortingOrder: 0
  m_Sprite: {fileID: 21300000, guid: d829f81db612d9f4fb5fe84dabc82ffd, type: 3}
  m_Color: {r: 1, g: 1, b: 1, a: 1}
  m_FlipX: 0
  m_FlipY: 0
  m_DrawMode: 0
  m_Size: {x: 1.36, y: 2.33}
  m_AdaptiveModeThreshold: 0.5
  m_SpriteTileMode: 0
  m_WasSpriteAssigned: 1
  m_MaskInteraction: 0
  m_SpriteSortPoint: 0
--- !u!60 &1636339107744819293
PolygonCollider2D:
  m_ObjectHideFlags: 0
  m_CorrespondingSourceObject: {fileID: 0}
  m_PrefabInstance: {fileID: 0}
  m_PrefabAsset: {fileID: 0}
  m_GameObject: {fileID: 4078951439432745743}
  m_Enabled: 1
  m_Density: 1
  m_Material: {fileID: 0}
  m_IsTrigger: 0
  m_UsedByEffector: 0
  m_UsedByComposite: 0
  m_Offset: {x: 0, y: 0}
  m_SpriteTilingProperty:
    border: {x: 0, y: 0, z: 0, w: 0}
    pivot: {x: 0.5, y: 0.5}
    oldSize: {x: 1.36, y: 2.33}
    newSize: {x: 1.36, y: 2.33}
    adaptiveTilingThreshold: 0.5
    drawMode: 0
    adaptiveTiling: 0
  m_AutoTiling: 0
  m_Points:
    m_Paths:
    - - {x: 0.24, y: -0.505}
      - {x: 0.37, y: -0.095}
      - {x: 0.48, y: 0.105}
      - {x: 0.66999996, y: 0.275}
      - {x: 0.66999996, y: 0.42499998}
      - {x: 0.55, y: 0.675}
      - {x: 0.48, y: 0.91499996}
      - {x: 0.47, y: 1.125}
      - {x: 0.42999998, y: 1.165}
      - {x: 0.32999998, y: 1.165}
      - {x: 0.25, y: 1.115}
      - {x: 0.11, y: 0.865}
      - {x: -0.31, y: 0.53499997}
      - {x: -0.34, y: 0.445}
      - {x: -0.32999998, y: 0.355}
      - {x: -0.32, y: 0.345}
      - {x: -0.32, y: 0.325}
      - {x: -0.32, y: 0.345}
      - {x: -0.35, y: 0.375}
      - {x: -0.39, y: 0.53499997}
      - {x: -0.48999998, y: 0.66499996}
      - {x: -0.57, y: 0.66499996}
      - {x: -0.61, y: 0.565}
      - {x: -0.59999996, y: 0.345}
      - {x: -0.68, y: 0.13499999}
      - {x: -0.68, y: 0.015}
      - {x: -0.59, y: -0.074999996}
      - {x: -0.55, y: -0.315}
      - {x: -0.39999998, y: -0.45499998}
      - {x: -0.31, y: -0.515}
      - {x: -0.31, y: -0.685}
      - {x: -0.35, y: -0.92499995}
      - {x: -0.34, y: -1.105}
      - {x: -0.26999998, y: -1.165}
      - {x: 0.08, y: -1.165}
      - {x: 0.14, y: -1.125}
      - {x: 0.16, y: -0.92499995}
