%YAML 1.1
%TAG !u! tag:unity3d.com,2011:
--- !u!114 &11400000
MonoBehaviour:
  m_ObjectHideFlags: 0
  m_CorrespondingSourceObject: {fileID: 0}
  m_PrefabInstance: {fileID: 0}
  m_PrefabAsset: {fileID: 0}
  m_GameObject: {fileID: 0}
  m_Enabled: 1
  m_EditorHideFlags: 0
  m_Script: {fileID: 11500000, guid: 26f2c454c4f41994c8a63a3dc5f9691f, type: 3}
  m_Name: MapType
  m_EditorClassIdentifier: 
  Maps:
  - MapIndex: 0
    part1: {fileID: 5530099625023109770, guid: 27ec296ca6c43d247ac31b7e9db443fb, type: 3}
    part2: {fileID: 5838683963025750450, guid: cc96b3e7033e4c34ba84fac41ad862fa, type: 3}
    part3: {fileID: 3120167392969886017, guid: 018dce325fa476e4b9ce7f8bc3773c04, type: 3}
    part4: {fileID: 6175638193380794114, guid: c7ab60e7bf1d14049880c0d095a145f1, type: 3}
    part5: {fileID: 6778352076018307122, guid: bebfbd1f22d97384d84c027e01925563, type: 3}
  - MapIndex: 1
    part1: {fileID: 2737524855586267586, guid: abdfae95e18e9cf4485899e7d8647e80, type: 3}
    part2: {fileID: 9110008653310777636, guid: 98baeec87f80f8e4581ec5b3ff998f93, type: 3}
    part3: {fileID: 8943817690869589551, guid: ec2448f855572a5489c4720d8694af90, type: 3}
    part4: {fileID: 5239706894791535782, guid: e8d1943d050cc0240a6170e939d447ae, type: 3}
    part5: {fileID: 1648112186768040450, guid: cd3b6379817aa0740885a912e849d40f, type: 3}
  - MapIndex: 2
    part1: {fileID: 6962982043003762863, guid: a8c2698cc03d77e45b7ce3c8dfbcb08b, type: 3}
    part2: {fileID: 2098193059711987077, guid: 8508650325c9fd3409931a2e9997d279, type: 3}
    part3: {fileID: 2259484889748092111, guid: a3cb798a58dccb14e84c8939a6f0a8c6, type: 3}
    part4: {fileID: 2068700294943380216, guid: 255e58671d67eef428166b64ba4d05f7, type: 3}
    part5: {fileID: 2699017245724740943, guid: ce1916ecbf67655489e74e0470628f94, type: 3}
