%YAML 1.1
%TAG !u! tag:unity3d.com,2011:
--- !u!78 &1
TagManager:
  serializedVersion: 2
  tags:
  - Ground
  - Enemy
  - BanannaB
  - BanannaP
  - Ammo
  - FxTemporaire
  - power
  - Ammo
  - dir
  - Cross
  layers:
  - Default
  - TransparentFX
  - Ignore Raycast
  - 
  - Water
  - UI
  - 
  - 
  - Ground
  - 
  - 
  - 
  - 
  - 
  - 
  - 
  - 
  - 
  - 
  - 
  - 
  - 
  - 
  - 
  - 
  - 
  - 
  - 
  - 
  - 
  - 
  - 
  m_SortingLayers:
  - name: Default
    uniqueID: 0
    locked: 0
  - name: UI
    uniqueID: 3033162605
    locked: 0
  - name: environ
    uniqueID: 453741633
    locked: 0
  - name: apperUI
    uniqueID: 3619545637
    locked: 0
